GFORTRAN module version '0' created from CFmax.f90 on Thu Sep 17 17:32:40 2015
MD5:269fd2148c9e002ca06e74f2edcfdaaf -- If you edit this, you'll get what you deserve.

(() () () () () () () () () () () () () () () () () () () () () () () ()
() () ())

()

()

()

()

(2 'dsttilde' 'terms' 'dsttilde' 1 ((VARIABLE UNKNOWN-INTENT
UNKNOWN-PROC UNKNOWN UNKNOWN) (REAL 8 0 0 REAL ()) 0 0 () () 0 () () ()
0 0)
3 'dsxtilde' 'terms' 'dsxtilde' 1 ((VARIABLE UNKNOWN-INTENT UNKNOWN-PROC
UNKNOWN UNKNOWN) (REAL 8 0 0 REAL ()) 0 0 () () 0 () () () 0 0)
4 'dsztilde' 'terms' 'dsztilde' 1 ((VARIABLE UNKNOWN-INTENT UNKNOWN-PROC
UNKNOWN UNKNOWN) (REAL 8 0 0 REAL ()) 0 0 () () 0 () () () 0 0)
5 'gamma' 'terms' 'gamma' 1 ((VARIABLE UNKNOWN-INTENT UNKNOWN-PROC
UNKNOWN UNKNOWN) (REAL 8 0 0 REAL ()) 0 0 () () 0 () () () 0 0)
6 'kind' '(intrinsic)' 'kind' 1 ((PROCEDURE UNKNOWN-INTENT UNKNOWN-PROC
UNKNOWN UNKNOWN FUNCTION) (UNKNOWN 0 0 0 UNKNOWN ()) 0 0 () () 6 () () ()
0 0)
7 'mass' 'terms' 'mass' 1 ((VARIABLE UNKNOWN-INTENT UNKNOWN-PROC UNKNOWN
UNKNOWN) (REAL 8 0 0 REAL ()) 0 0 () () 0 () () () 0 0)
8 'mui' 'terms' 'mui' 1 ((VARIABLE UNKNOWN-INTENT UNKNOWN-PROC UNKNOWN
UNKNOWN) (REAL 8 0 0 REAL ()) 0 0 () () 0 () () () 0 0)
9 'pm' 'terms' 'pm' 1 ((VARIABLE UNKNOWN-INTENT UNKNOWN-PROC UNKNOWN
UNKNOWN) (INTEGER 4 0 0 INTEGER ()) 0 0 () () 0 () () () 0 0)
10 'tem' 'terms' 'tem' 1 ((VARIABLE UNKNOWN-INTENT UNKNOWN-PROC UNKNOWN
UNKNOWN) (REAL 8 0 0 REAL ()) 0 0 () () 0 () () () 0 0)
11 'terms' 'terms' 'terms' 1 ((MODULE UNKNOWN-INTENT UNKNOWN-PROC
UNKNOWN UNKNOWN) (UNKNOWN 0 0 0 UNKNOWN ()) 0 0 () () 0 () () () 0 0)
12 'vtilde' 'terms' 'vtilde' 1 ((VARIABLE UNKNOWN-INTENT UNKNOWN-PROC
UNKNOWN UNKNOWN) (REAL 8 0 0 REAL ()) 0 0 () () 0 () () () 0 0)
)

('dsttilde' 0 2 'dsxtilde' 0 3 'dsztilde' 0 4 'gamma' 0 5 'kind' 0 6
'mass' 0 7 'mui' 0 8 'pm' 0 9 'tem' 0 10 'terms' 0 11 'vtilde' 0 12)
